10 Module 2.2: Data Quality Control and Filtering – Plant Genetics Data Analysis with R - Baku
…
# We start by loading our raw data file
barley_data_file_path <- "data/icarda_barley_2019_pheno_raw.csv" # Defining our file path
barley_pheno_data <- read_csv(barley_data_file_path) # Loading into data frame

# We filter the data frame to keep only one entry for each ID
data <- barley_pheno_data[!duplicated(barley_pheno_data),]
data

# A tibble: 275 × 24
   Taxa   Area B_glucan Circularity Diameter   DTH    Fe   FLA   FLH   GpS   GWS
   <chr> <dbl>    <dbl>       <dbl>    <dbl> <dbl> <dbl> <dbl> <dbl> <dbl> <dbl>
 1 G1     22.7     6.85        1.89     5.37  75.9  29.7 16.6   82.8  44.7 1.62 
 2 G2     23.1     7.43        1.78     5.40  70.2  31.6  7.97  62.4  25.3 1.06 
 3 G3     19.9     4.01        1.56     5.03  74.2  34.2  7.59  61.8  25.7 0.952
 4 G4     23.3     6.09        2.30     5.42  74.4  31.4 18.8   69.8  66.2 2.52 
 5 G5     19.5     7.31        1.90     4.98  77.7  30.3 16.5   64.4  54.6 1.20 
 6 G7     23.0     7.27        1.75     5.42  72.7  30.6 18.4   78.1  26.6 1.08 
 7 G8     24.2     6.52        1.90     5.51  73.1  34.5 13.2   66.8  51.4 2.46 
 8 G9     22.5     6.61        1.90     5.34  74.0  33.5 12.7   70.0  38.2 1.39 
 9 G12    21.5     7.12        1.62     5.23  77.2  32.3 11.6   61.3  31.3 1.20 
10 G13    19.3     7.07        1.88     4.98  76.6  31.7 17.3   62.8  43.5 1.31 
# ℹ 265 more rows
# ℹ 13 more variables: GY <dbl>, HW <dbl>, Length <dbl>, Length_Wid <dbl>,
#   PdH <dbl>, PdL <dbl>, Perimeter <dbl>, PH <dbl>, Protein <dbl>, SL <dbl>,
#   TKW <dbl>, width <dbl>, Zn <dbl>

10.3 Filtering by Missing Data

Many times, we will want to remove rows with missing data. Missing values can distort certain calculations. Although some functions in R have an option to automatically remove NA’s before performing the calculation, many times it is necessary to remove them beforehand.

# We will work with our duplicate filtered data frame from last section.
# complete.cases() allows us to filter any rows with missing values
data <- data[complete.cases(data),]
data

# A tibble: 266 × 24
   Taxa   Area B_glucan Circularity Diameter   DTH    Fe   FLA   FLH   GpS   GWS
   <chr> <dbl>    <dbl>       <dbl>    <dbl> <dbl> <dbl> <dbl> <dbl> <dbl> <dbl>
 1 G1     22.7     6.85        1.89     5.37  75.9  29.7 16.6   82.8  44.7 1.62 
 2 G2     23.1     7.43        1.78     5.40  70.2  31.6  7.97  62.4  25.3 1.06 
 3 G3     19.9     4.01        1.56     5.03  74.2  34.2  7.59  61.8  25.7 0.952
 4 G4     23.3     6.09        2.30     5.42  74.4  31.4 18.8   69.8  66.2 2.52 
 5 G5     19.5     7.31        1.90     4.98  77.7  30.3 16.5   64.4  54.6 1.20 
 6 G7     23.0     7.27        1.75     5.42  72.7  30.6 18.4   78.1  26.6 1.08 
 7 G8     24.2     6.52        1.90     5.51  73.1  34.5 13.2   66.8  51.4 2.46 
 8 G9     22.5     6.61        1.90     5.34  74.0  33.5 12.7   70.0  38.2 1.39 
 9 G12    21.5     7.12        1.62     5.23  77.2  32.3 11.6   61.3  31.3 1.20 
10 G13    19.3     7.07        1.88     4.98  76.6  31.7 17.3   62.8  43.5 1.31 
# ℹ 256 more rows
# ℹ 13 more variables: GY <dbl>, HW <dbl>, Length <dbl>, Length_Wid <dbl>,
#   PdH <dbl>, PdL <dbl>, Perimeter <dbl>, PH <dbl>, Protein <dbl>, SL <dbl>,
#   TKW <dbl>, width <dbl>, Zn <dbl>
…
# Saving our boxplot in an object allows us to extract the outlier values as a vector
areaBP$out

[1] 31.16480 28.96363 29.90218 29.84108 29.00766 15.57887

# We can then choose to remove these outlier entries from our data frame
# The idea here is that we keep the rows where the `Area` value is not in our outliers vector
dataArea <- data[! data$Area %in% areaBP$out,]
dataArea

# A tibble: 260 × 24
   Taxa   Area B_glucan Circularity Diameter   DTH    Fe   FLA   FLH   GpS   GWS
   <chr> <dbl>    <dbl>       <dbl>    <dbl> <dbl> <dbl> <dbl> <dbl> <dbl> <dbl>
 1 G1     22.7     6.85        1.89     5.37  75.9  29.7 16.6   82.8  44.7 1.62 
 2 G2     23.1     7.43        1.78     5.40  70.2  31.6  7.97  62.4  25.3 1.06 
 3 G3     19.9     4.01        1.56     5.03  74.2  34.2  7.59  61.8  25.7 0.952
 4 G4     23.3     6.09        2.30     5.42  74.4  31.4 18.8   69.8  66.2 2.52 
 5 G5     19.5     7.31        1.90     4.98  77.7  30.3 16.5   64.4  54.6 1.20 
 6 G7     23.0     7.27        1.75     5.42  72.7  30.6 18.4   78.1  26.6 1.08 
 7 G8     24.2     6.52        1.90     5.51  73.1  34.5 13.2   66.8  51.4 2.46 
 8 G9     22.5     6.61        1.90     5.34  74.0  33.5 12.7   70.0  38.2 1.39 
 9 G12    21.5     7.12        1.62     5.23  77.2  32.3 11.6   61.3  31.3 1.20 
10 G13    19.3     7.07        1.88     4.98  76.6  31.7 17.3   62.8  43.5 1.31 
# ℹ 250 more rows
# ℹ 13 more variables: GY <dbl>, HW <dbl>, Length <dbl>, Length_Wid <dbl>,
#   PdH <dbl>, PdL <dbl>, Perimeter <dbl>, PH <dbl>, Protein <dbl>, SL <dbl>,
#   TKW <dbl>, width <dbl>, Zn <dbl>
…
